<!-- Created with Inkscape (http://www.inkscape.org/) --><svg xmlns:inkscape="http://www.inkscape.org/namespaces/inkscape" xmlns:sodipodi="http://sodipodi.sourceforge.net/DTD/sodipodi-0.dtd" xmlns:xlink="http://www.w3.org/1999/xlink" xmlns="http://www.w3.org/2000/svg" xmlns:svg="http://www.w3.org/2000/svg" width="210mm" height="297mm" viewBox="0 0 210 297" version="1.1" id="svg5" sodipodi:docname="patterns.svg" inkscape:version="1.2-alpha1 (2e548ec3, 2022-02-27)">
  <sodipodi:namedview id="namedview7" pagecolor="#ffffff" bordercolor="#666666" borderopacity="1.0" inkscape:pageshadow="2" inkscape:pageopacity="0.0" inkscape:pagecheckerboard="0" inkscape:deskcolor="#d1d1d1" inkscape:document-units="mm" showgrid="false" inkscape:zoom="0.89263468" inkscape:cx="213.41317" inkscape:cy="487.32142" inkscape:window-width="2560" inkscape:window-height="1377" inkscape:window-x="1912" inkscape:window-y="-8" inkscape:window-maximized="1" inkscape:current-layer="layer1"/>
  <defs id="defs2">
    <pattern inkscape:collect="always" xlink:href="#pattern5815" id="pattern4405" patternTransform="matrix(10,0,0,10,-4.742515,-62.245509)"/>
    <pattern inkscape:collect="always" patternUnits="userSpaceOnUse" width="2" height="1" patternTransform="translate(0,0) scale(10,10)" id="Strips1_1" inkscape:stockid="Stripes 1:1">
      <rect style="fill:#000000;stroke:none;fill-opacity:1.0" x="0" y="-0.5" width="1" height="2" id="rect1826"/>
    </pattern>
    <pattern inkscape:collect="always" xlink:href="#Strips1_1" id="pattern4405-3" patternTransform="matrix(10,0,0,10,92.923652,-62.245507)"/>
  <pattern inkscape:collect="always" patternUnits="userSpaceOnUse" width="2" height="1" patternTransform="translate(0,0) scale(10,10)" inkscape:stockid="Stripes 1:1" id="pattern5815">
      <rect style="fill:#ff0000;stroke:none;fill-opacity:1.0" x="0" y="-0.5" width="1" height="2" id="rect1826-1"/>
    </pattern>
    </defs>
  <g inkscape:label="Ebene 1" inkscape:groupmode="layer" id="layer1">
    <rect style="fill:url(#pattern4405);fill-opacity:1;stroke-width:0.1;stroke-miterlimit:4;stroke-dasharray:none;stop-color:#ff0000;stop-opacity:1.0" id="rect184" width="61.9491" height="61.059879" x="15.709581" y="14.820363"/>
    <rect style="fill:url(#pattern4405-3);fill-opacity:1;stroke-width:0.1;stroke-miterlimit:4;stroke-dasharray:none;stop-color:#000000" id="rect184-8" width="61.9491" height="61.059879" x="113.37575" y="14.820363"/>
  </g>
</svg>